…
```{r}

tidy_safety <- airlinesafety|>
  pivot_longer(cols = 3:8, 
               names_to = "var_plus_year", values_to = "count") %>% 
  separate(var_plus_year, into = c("var", "years"), sep = " ") %>% 
  pivot_wider(names_from = var, values_from = count)

```

***Ans: First line uses pivot longer to combine some variables together and then second line separates the desired columns into multiples columns and then last line uses pivot wider to uise those seperated columns as seperate variables.***

Your final dataset should look like this:
```{r, eval = FALSE}
# A tibble: 112 x 6
   airline      avail_seat_km_pe… years      incidents fatal_accidents fatalities
   <chr>                    <dbl> <chr>          <dbl>           <dbl>      <dbl>
 1 Aer Lingus           320906734 1985_1999         2               0          0
 2 Aer Lingus           320906734 2000_2014         0               0          0
 3 Aeroflot*           1197672318 1985_1999        76              14        128
 4 Aeroflot*           1197672318 2000_2014         6               1         88
 5 Aerolineas …         385803648 1985_1999         6               0          0
 6 Aerolineas …         385803648 2000_2014         1               0          0
 7 Aeromexico*          596871813 1985_1999         3               1         64
 8 Aeromexico*          596871813 2000_2014         5               0          0
 9 Air Canada          1865253802 1985_1999         2               0          0
10 Air Canada          1865253802 2000_2014         2               0          0
# … with 102 more rows
```
…
